<?xml version="1.0" encoding="UTF-8" standalone="no"?>
<!-- Created with Inkscape (http://www.inkscape.org/) -->

<svg
   width="48"
   height="48"
   viewBox="0 0 12.7 12.7"
   version="1.1"
   id="svg5"
   xml:space="preserve"
   xmlns="http://www.w3.org/2000/svg"
   xmlns:svg="http://www.w3.org/2000/svg"><defs
     id="defs2" /><g
     id="layer1"
     transform="translate(-8.8905484,-4.4592954)"><g
       id="g7857"
       transform="translate(21.760022,6.7105555)"><path
         id="rect6386"
         style="fill:#ffffff;fill-opacity:1;stroke:none;stroke-width:1"
         d="m -6.6144015,-2.2510011 c -0.109102,-7.98e-5 -0.05623,5.779e-4 -0.15813,5.168e-4 l -2.313037,0.00155 -0.0077,0.00207 c -0.01606,3.758e-4 -0.238552,8.81e-5 -0.242362,5.168e-4 -0.204399,0.023018 -0.44882,0.1277026 -0.661459,0.2826701 -0.070041,0.051042 -0.2002985,0.1763324 -0.2568305,0.2470133 -0.162746,0.2034802 -0.257425,0.4058237 -0.310059,0.6635254 -7.85e-4,0.00386 -3.52e-4,0.37449236 -10e-4,0.38292236 -9.1e-4,0.00376 -0.0028,0.00819 -0.0036,0.011886 -0.0087,0.037399 -0.0098,0.5679002 -0.0098,5.03948484 l 0.01665,4.697743 c 0.174748,0.8281607 1.0403879,1.3436755 1.7284685,1.3690725 l 1.945618,5.16e-4 c 0.02773,-3e-6 6.03e-4,3e-6 0.02894,0 h 0.679028 c 0.02834,3e-6 0.0012,-3e-6 0.02894,0 l 1.945101,-5.16e-4 0.03514,-0.0093 c 0.05288,-0.0018 0.68284,1.99e-4 0.696082,-0.0031 0.164711,-0.04109 0.319744,-0.106354 0.433565,-0.182934 0.159916,-0.107598 0.331262,-0.2841995 0.401526,-0.4139285 0.01292,-0.02386 0.02852,-0.05138 0.03514,-0.06098 0.02646,-0.0384 0.09687,-0.222711 0.12454,-0.326595 l 0.01912,-0.07235 v -4.997628 c 0,-0.365906 -10e-4,-0.09736 -10e-4,-0.412377 -1.9e-4,-3.53466054 -8.25e-4,-4.59276894 -0.0088,-4.62710784 -7.1e-4,-0.00307 -0.0023,-0.00672 -0.0031,-0.00982 C -2.6172947,-1.277841 -3.195333,-2.0806634 -3.9458305,-2.246867 l -0.0078,-0.00207 -2.313037,-0.00155 z" /><g
         id="g636"
         transform="matrix(0.0745593,0,0,0.0745593,1.7170885,-10.283073)"><path
           style="fill:#851a18;stroke-width:0.0846667"
           d="m -121.64988,255.95667 c -0.70382,-0.10589 -1.37263,-0.36563 -2.14891,-0.83452 -1.2093,-0.73044 -2.02211,-1.74601 -2.52672,-3.15701 l -0.34167,-0.95541 -0.081,-4.064 c -0.0448,-2.24618 -0.0604,-9.70945 -0.035,-16.68523 0.045,-12.34181 0.0499,-12.63856 0.22027,-13.40353 0.19656,-0.88243 0.48394,-1.50517 1.04754,-2.26997 1.0293,-1.39672 2.96166,-2.39694 4.63077,-2.39694 1.41777,0 2.21425,0.2588 4.2723,1.38816 0.1397,0.0767 0.42545,0.21451 0.635,0.30632 0.20955,0.0918 0.66675,0.32472 1.016,0.51757 0.65444,0.36137 3.50026,1.85006 5.88433,3.07817 0.74507,0.38381 1.73567,0.89966 2.20134,1.14633 0.46566,0.24667 1.72296,0.8939 2.794,1.4383 1.07103,0.54439 2.93793,1.52304 4.148669,2.17477 1.21073,0.65173 2.58233,1.37758 3.048,1.61301 0.73128,0.36972 3.34542,1.75944 4.65666,2.47555 0.23284,0.12715 0.91864,0.48956 1.524,0.80533 0.60537,0.31578 1.13877,0.60289 1.18534,0.63802 0.0756,0.0571 2.96751,1.58012 4.74133,2.49711 0.82825,0.42818 2.18033,1.14202 2.921,1.54218 0.65065,0.35152 1.29861,0.94655 1.54507,1.41885 0.2399,0.45971 0.23372,1.22172 -0.0144,1.78274 -0.22674,0.51261 -0.45593,0.76513 -0.89562,0.98683 -0.18627,0.0939 -0.45895,0.2609 -0.60596,0.37107 -0.14701,0.11017 -0.92806,0.53879 -1.73567,0.95249 -0.8076,0.41371 -2.03987,1.05663 -2.73837,1.4287 -4.22445,2.25029 -5.62468,2.98717 -5.67626,2.98717 -0.0319,0 -0.53949,0.26203 -1.1279,0.5823 -2.65567,1.44545 -3.21931,1.74473 -5.09151,2.70346 -1.09431,0.56039 -2.389709,1.237 -2.878659,1.50356 -0.48895,0.26658 -1.0033,0.53786 -1.143,0.60287 -0.28013,0.13035 -0.25057,0.11457 -1.98967,1.06203 -0.67522,0.36785 -1.3444,0.71858 -1.48706,0.77939 -0.14267,0.0608 -1.04722,0.53458 -2.01012,1.05281 -0.96289,0.51824 -1.77962,0.94235 -1.81494,0.94247 -0.0353,0 -0.27376,0.12656 -0.52988,0.28102 -0.25612,0.15444 -0.86572,0.46324 -1.35467,0.68622 -0.48895,0.22297 -1.09855,0.52963 -1.35466,0.68146 -0.25612,0.15184 -1.71329,0.91138 -3.23815,1.68785 -3.39618,1.72937 -3.98901,1.9027 -5.65185,1.6525 z"
           id="path384-3" /><path
           style="fill:#0e2c52;stroke-width:0.0846667"
           d="m -142.77421,277.72723 c -1.6593,-0.42661 -2.90398,-0.88196 -4.11873,-1.50677 -3.86272,-1.98681 -7.05219,-5.69881 -8.40676,-9.78403 -0.65056,-1.96198 -0.81087,-3.02016 -0.89409,-5.90171 -0.11276,-3.90449 -0.0375,-129.15735 0.0782,-130.09033 0.12822,-1.03422 0.24383,-1.6891 0.39608,-2.24366 0.25718,-0.93679 0.63857,-2.05462 0.88334,-2.58905 0.13801,-0.30132 0.25093,-0.56662 0.25093,-0.58954 0,-0.0904 0.89935,-1.63997 1.29119,-2.22479 1.35018,-2.01509 2.57241,-3.24381 4.87533,-4.90118 1.26378,-0.90953 3.88946,-2.01839 5.76244,-2.43357 1.75592,-0.38922 0.27242,-0.3738 36.61053,-0.38058 36.758999,-0.007 34.819249,-0.0272 36.635169,0.38359 1.722141,0.38955 4.274821,1.4968 5.700841,2.4728 2.25739,1.54499 4.08346,3.4554 5.42383,5.67433 0.7947,1.31559 1.69815,3.64681 2.12265,5.4772 0.11633,0.50161 0.13,7.61648 0.12989,67.59021 v 67.02957 l -0.25934,0.97367 c -0.3711,1.39331 -1.31132,3.86491 -1.66616,4.37996 -0.0888,0.12891 -0.3033,0.49624 -0.47665,0.81628 -0.94239,1.73995 -3.23934,4.1082 -5.38416,5.55132 -1.5266,1.02716 -3.60741,1.90622 -5.816551,2.4573 -0.69026,0.17217 -0.75194,0.17247 -36.279659,0.16899 l -35.58823,-0.003 -1.27,-0.32652 z m 60.578989,-9.98951 c 10.11439,-0.0614 10.20818,-0.0635 10.87967,-0.246 1.19847,-0.32575 2.4715,-1.10994 3.278601,-2.01956 0.55615,-0.62681 1.16324,-1.78831 1.38295,-2.64591 0.18456,-0.72041 0.18618,-0.79342 0.24491,-11.05453 0.0325,-5.68113 0.0897,-13.22493 0.12701,-16.764 0.0373,-3.53907 0.0521,-6.46192 0.0329,-6.49523 -0.0792,-0.13696 -0.19484,-27.54346 -0.18496,-43.8391 0.0234,-38.64727 -0.0147,-53.16472 -0.14157,-53.82754 -0.13415,-0.70111 -0.60569,-1.80574 -1.0388,-2.43346 -1.063791,-1.54178 -2.683711,-2.48358 -4.717001,-2.74239 -0.43012,-0.0547 -4.84065,-0.0861 -12.08433,-0.0859 -10.09859,3.4e-4 -11.42178,0.0151 -11.53583,0.12919 -0.11263,0.11262 -0.12884,0.80378 -0.12884,5.49307 0,4.76369 0.0149,5.37913 0.13305,5.49728 0.11513,0.11514 0.48065,0.13305 2.7149,0.13305 1.62178,0 2.64289,-0.0327 2.74601,-0.0879 0.0903,-0.0483 0.28291,-0.32454 0.42806,-0.61383 1.02192,-2.03674 2.94276,-3.57603 5.04149,-4.04005 0.91971,-0.20334 2.31021,-0.22054 3.17612,-0.0393 1.3907,0.29112 3.32194,1.50385 4.15651,2.6101 0.71273,0.94476 0.79633,1.08278 1.06199,1.75322 0.55253,1.39445 0.70783,3.04881 0.41274,4.39703 -0.15122,0.69087 -0.64071,1.73435 -1.25107,2.667 -0.6215,0.94968 -1.98855,2.05312 -3.04258,2.45589 -0.31837,0.12165 -0.61987,0.27061 -0.67,0.33101 -0.0644,0.0775 -0.0848,3.57884 -0.0697,11.91056 l 0.0215,11.80073 0.85485,0.4669 c 1.1267,0.61538 1.47502,0.87409 2.2437,1.6665 2.48977,2.56666 2.75062,6.37701 0.63085,9.21536 -1.67623,2.24446 -4.41314,3.41162 -6.96641,2.97085 -3.26641,-0.56388 -5.70829,-3.02259 -6.21363,-6.25645 -0.30208,-1.93316 0.42382,-4.26855 1.79625,-5.77894 0.73461,-0.80846 1.27699,-1.21462 2.36551,-1.77141 0.50612,-0.25889 0.94286,-0.50733 0.97052,-0.55209 0.0277,-0.0448 0.0682,-5.31149 0.0901,-11.70382 0.0317,-9.26893 0.0181,-11.66289 -0.0673,-11.82226 -0.0637,-0.11882 -0.29958,-0.27751 -0.58196,-0.39145 -0.6312,-0.25469 -1.52955,-0.80119 -2.12749,-1.29423 -0.67092,-0.5532 -1.19614,-1.23084 -1.70586,-2.2009 l -0.4331,-0.82425 -4.318,-0.0464 c -2.9019,-0.0312 -4.40923,-0.0781 -4.59617,-0.14312 -0.50267,-0.1747 -0.835219,-0.43695 -1.144249,-0.90239 -0.57785,-0.87029 -0.56725,-0.71792 -0.56725,-8.15317 0,-5.08319 -0.0243,-6.70497 -0.1016,-6.78228 -0.11293,-0.11293 -2.24179,-0.14552 -2.40447,-0.0368 -0.0666,0.0445 -0.10817,3.68321 -0.14606,12.77944 -0.0473,11.35451 -0.0391,12.73112 0.0767,12.8469 0.0713,0.0713 0.4992,0.31949 0.95083,0.55148 1.88204,0.96674 3.457468,3.16423 3.751768,5.23315 0.36663,2.57738 -0.6311,5.09756 -2.697728,6.81427 -1.9803,1.64499 -4.87095,2.0135 -7.37103,0.9397 -0.38958,-0.16733 -0.7974,-0.30424 -0.90627,-0.30424 -0.24938,0 -0.56337,0.2196 -1.53761,1.07538 -1.46711,1.28871 -2.10399,1.81953 -2.61087,2.17604 -0.4825,0.33937 -1.71183,1.3557 -2.77272,2.2923 -0.2677,0.23634 -0.59738,0.50967 -0.73262,0.60741 -0.36043,0.26048 -0.96206,0.76163 -1.87099,1.55851 -1.95075,1.71027 -2.54,2.25272 -2.54,2.33828 0,0.0503 0.0772,0.35804 0.17157,0.68385 0.2713,0.93675 0.30876,2.27558 0.0912,3.2594 -0.362,1.63698 -1.42306,3.33082 -2.66192,4.24936 -1.2791,0.9484 -1.92057,1.22937 -3.35386,1.46904 -1.15664,0.1934 -2.30693,0.13144 -3.30633,-0.17811 -0.81524,-0.2525 -2.02173,-0.93654 -2.69447,-1.52767 -0.97299,-0.85495 -1.85748,-2.34909 -2.22501,-3.75862 -0.23323,-0.89448 -0.25318,-2.27588 -0.0465,-3.21733 0.25967,-1.18263 1.08074,-2.64776 1.99605,-3.5618 0.70154,-0.70058 1.371,-1.14968 2.31093,-1.55027 1.00334,-0.42761 1.78037,-0.58156 2.90264,-0.57508 1.13211,0.007 2.03693,0.20596 2.94619,0.64934 0.7832,0.3819 0.88311,0.36726 1.59255,-0.23342 1.58104,-1.33868 2.46645,-2.06916 2.99659,-2.47226 0.32597,-0.24785 0.99272,-0.80803 1.48167,-1.24484 0.48895,-0.43682 1.3843,-1.19242 1.98966,-1.67913 0.60537,-0.4867 1.5472,-1.27685 2.09296,-1.75589 0.54577,-0.47904 1.11727,-0.9564 1.27,-1.06082 0.53721,-0.36723 1.41192,-1.10281 1.45981,-1.22761 0.0266,-0.0694 -0.0368,-0.41669 -0.14098,-0.77171 -0.15823,-0.53929 -0.18982,-0.8545 -0.19193,-1.91551 -0.002,-1.17112 0.0161,-1.32604 0.23668,-1.98967 0.13156,-0.39582 0.29349,-0.80405 0.35983,-0.90719 0.0663,-0.10313 0.12063,-0.24182 0.12063,-0.30818 0,-0.0664 0.18098,-0.35932 0.40217,-0.651 0.22119,-0.29168 0.48915,-0.65893 0.59547,-0.81612 0.2376,-0.35129 1.6447,-1.39471 2.46884,-1.83073 l 0.60904,-0.32221 -0.0591,-12.75879 c -0.0381,-8.21845 -0.089,-12.79644 -0.14313,-12.86461 -0.10172,-0.12818 -2.2355,-0.14835 -2.43392,-0.023 -0.11065,0.0699 -0.13245,0.98231 -0.16933,7.08954 -0.0416,6.88859 -0.0454,7.01587 -0.21944,7.39031 -0.27123,0.58347 -0.6126,0.93159 -1.17392,1.19714 l -0.51164,0.24205 -4.28065,7e-5 c -3.2963,5e-5 -4.31156,0.0244 -4.41508,0.1059 -0.0739,0.0582 -0.27466,0.3694 -0.44604,0.69153 -0.17138,0.32213 -0.41258,0.72218 -0.53602,0.889 -0.26582,0.35926 -1.37242,1.45783 -1.86322,1.84969 -0.55492,0.44305 -1.52074,0.91618 -2.37467,1.16328 -1.72295,0.49856 -3.94444,0.1816 -5.43654,-0.77568 -1.44335,-0.926 -2.34233,-1.92807 -2.98829,-3.33099 -0.41247,-0.89582 -0.56382,-1.51756 -0.6183,-2.54 -0.0825,-1.54815 0.28703,-3.0059 1.05165,-4.14866 0.71127,-1.06303 1.07984,-1.46972 1.84227,-2.03282 1.2366,-0.9133 1.96078,-1.22157 3.47607,-1.47969 1.26161,-0.21491 2.81431,0.0285 3.99874,0.6268 0.8282,0.41837 1.93533,1.24348 2.36636,1.76359 0.38457,0.46402 1.03739,1.45582 1.03739,1.57604 0,0.0449 0.11859,0.2664 0.26354,0.49228 l 0.26354,0.41069 2.84796,-0.0223 2.84796,-0.0223 0.0218,-5.54081 c 0.0141,-3.59285 -0.008,-5.57044 -0.0625,-5.62508 -0.11769,-0.11769 -23.22965,-0.0791 -23.91998,0.04 -0.83011,0.14315 -1.27517,0.30037 -2.15966,0.76291 -1.72592,0.90258 -2.93391,2.50664 -3.34717,4.44465 -0.13307,0.62402 -0.1427,5.05421 -0.14326,65.86371 -5.9e-4,61.86487 0.007,65.22922 0.14808,65.87067 0.16222,0.7375 0.46659,1.41258 0.99188,2.19998 0.70759,1.06065 1.54198,1.74108 2.93228,2.39123 1.10674,0.51754 2.18339,0.64612 4.92219,0.58788 1.09431,-0.0233 3.74226,-0.014 5.88433,0.0205 4.24087,0.0684 32.332699,0.0266 48.640999,-0.0723 z m -57.996659,-67.55834 c -0.5184,-0.11708 -0.97374,-0.40937 -1.466,-0.94107 -0.77887,-0.84129 -0.92368,-1.71903 -0.45315,-2.74681 0.25971,-0.56728 0.7447,-1.03212 1.45038,-1.39013 l 0.55657,-0.28236 33.75926,-0.0222 c 35.918399,-0.0236 34.335819,-0.0392 35.091629,0.34524 0.42621,0.2168 0.82689,0.638 1.14564,1.20427 0.28368,0.50401 0.31566,0.62253 0.3127,1.15905 -0.004,0.79155 -0.2874,1.38114 -0.96347,2.00706 -0.78663,0.72828 -0.4797,0.69809 -7.03423,0.69201 -3.14325,-0.003 -15.94485,-0.0147 -28.447999,-0.0262 -12.50315,-0.0115 -25.19045,-8.5e-4 -28.194,0.0236 -3.00355,0.0244 -5.59435,0.0143 -5.75733,-0.0225 z m -15.19767,72.6201 c -1.51287,-0.79084 -3.38405,-2.39313 -4.92988,-4.22142 -2.01039,-2.37774 -3.12136,-4.48977 -4.0331,-7.66718 -0.6223,-2.16873 -0.57123,4.41947 -0.54082,-69.76048 0.0258,-62.86045 0.0356,-66.67341 0.1743,-67.35234 0.70593,-3.45634 1.97377,-6.1711 4.15655,-8.90021 0.75821,-0.94798 2.50874,-2.63149 3.4481,-3.31608 2.85195,-2.07845 6.1292,-3.47714 8.87063,-3.78586 0.57361,-0.0646 11.31749,-0.0839 36.49989,-0.0654 l 35.686999,0.0262 0.99361,0.27205 c 1.37011,0.37514 2.30147,0.68112 2.90105,0.95309 0.2794,0.12673 0.60325,0.25973 0.71967,0.29556 0.44205,0.13604 1.92783,0.92872 2.66316,1.42083 1.548641,1.0364 3.042931,2.30752 3.590331,3.05411 0.4341,0.59207 0.47855,0.72901 0.24202,0.74559 -0.35067,0.0246 -0.596,-0.0236 -0.90028,-0.17675 -0.98505,-0.49584 -4.198591,-1.22176 -5.806901,-1.31175 -0.46566,-0.026 -15.91521,-0.0511 -34.332329,-0.0556 -24.51566,-0.006 -33.82587,0.0179 -34.75566,0.0892 -2.14758,0.16468 -4.37599,0.76561 -6.68617,1.80306 -0.75264,0.33799 -2.57033,1.47902 -3.49844,2.19611 -2.37387,1.8341 -4.01311,3.86096 -5.48107,6.77713 -1.08157,2.1486 -1.66301,4.30643 -1.88782,7.00608 -0.0949,1.13956 -0.072,131.14733 0.0233,132.20701 0.13965,1.5531 0.88686,4.44347 1.48837,5.75733 0.54606,1.19273 0.96097,1.96338 1.4359,2.667 0.62975,0.93299 0.78344,1.24144 0.71929,1.44357 -0.0706,0.22236 -0.16681,0.20961 -0.76066,-0.10082 z"
           id="path382-6" /></g></g></g></svg>
